BL-B-SC-2N-2R-C3 :: job_1493174712304_0001
BM-B-CC-2N-1R-C3 :: job_1493174712304_0011
BM-B-SC-2N-2R-C3 :: job_1493174712304_0009
BL-B-SC-2N-2R-C3 :: job_1493174712304_0001
BL-B-CC-2N-2R-C3 :: job_1494439925864_0001
BL-B-SC-2N-1R-C3 :: job_1494703101985_0001
BM-B-SC-2N-1R-C3 :: job_1493772163513_0006
BM-B-CC-2N-2R-C3 :: job_1493772163513_0002
BL-B-CC-2N-1R-C3 :: job_1493772163513_0004
BM-B-SC-2N-1R-C3 :: job_1493772163513_0006
BM-B-CC-2N-2R-C3 :: job_1493772163513_0002
BL-B-CC-2N-1R-C3 :: job_1493772163513_0004
BM-B-SC-4N-2R-C3 :: job_1492555929354_0014
BL-B-SC-4N-2R-C3 :: job_1492555929354_0013
BL-B-CC-4N-1R-C3 :: job_1492555929354_0016
BL-B-SC-4N-4R-C3 :: job_1492555929354_0001
BM-B-CC-4N-4R-C3 :: job_1492555929354_0004
BM-B-SC-4N-1R-C3 :: job_1492555929354_0011
BM-B-CC-4N-2R-C3 :: job_1492555929354_0008
BL-B-CC-4N-2R-C3 :: job_1492555929354_0006
BL-B-SC-4N-1R-C3 :: job_1492555929354_0009
BL-B-CC-4N-4R-C3 :: job_1492555929354_0002
BM-B-SC-4N-4R-C3 :: job_1492555929354_0003
BM-B-CC-4N-1R-C3 :: job_1492555929354_0012
BL-B-CC-6N-4R-C3 :: job_1491579807709_0022
BM-B-SC-6N-6R-C3 :: job_1491579807709_0019
BM-B-SC-6N-4R-C3 :: job_1491579807709_0023
BM-B-CC-6N-1R-C3 :: job_1491579807709_0032
BL-B-SC-6N-1R-C3 :: job_1491579807709_0029
BL-B-SC-6N-6R-C3 :: job_1491579807709_0017
BL-B-SC-6N-4R-C3 :: job_1491579807709_0021
BM-B-CC-6N-6R-C3 :: job_1491579807709_0020
BL-B-SC-6N-2R-C3 :: job_1491579807709_0025
BM-B-CC-6N-4R-C3 :: job_1491579807709_0024
BM-B-SC-6N-1R-C3 :: job_1491579807709_0031
BL-B-CC-6N-1R-C3 :: job_1491579807709_0030
BL-B-CC-6N-6R-C3 :: job_1491579807709_0018
BL-B-CC-6N-2R-C3 :: job_1492883871367_0001
BM-B-CC-6N-2R-C3 :: job_1492883871367_0006
BM-B-SC-1N-1R-C2 :: job_1487553218406_0007
BM-B-SC-1N-1R-C1 :: job_1487553218406_0001
BL-B-CC-1N-1R-C2 :: job_1487553218406_0006
BL-B-CC-1N-1R-C1 :: job_1487553218406_0004
BM-B-CC-1N-1R-C2 :: job_1487553218406_0008
BM-B-CC-1N-1R-C1 :: job_1487553218406_0002
BL-B-SC-1N-1R-C2 :: job_1487553218406_0005
BL-B-SC-1N-1R-C1 :: job_1487553218406_0003
BM-B-SC-2N-1R-C2 :: job_1481712716719_0015
BM-B-SC-2N-2R-C1 :: job_1481712716719_0003
BM-B-CC-2N-2R-C2 :: job_1481712716719_0012
BL-B-SC-2N-2R-C1 :: job_1481712716719_0002
BL-B-SC-2N-2R-C2 :: job_1481712716719_0010
BM-B-CC-2N-2R-C1 :: job_1481712716719_0004
BL-B-CC-2N-1R-C2 :: job_1481712716719_0014
BL-B-CC-2N-1R-C1 :: job_1481712716719_0006
BM-B-CC-2N-1R-C2 :: job_1481712716719_0016
BM-B-SC-2N-1R-C1 :: job_1481712716719_0007
BM-B-SC-2N-2R-C2 :: job_1481712716719_0011
BM-B-CC-2N-1R-C1 :: job_1481712716719_0008
BL-B-SC-2N-1R-C2 :: job_1481712716719_0013
BL-B-SC-2N-1R-C1 :: job_1481712716719_0005
BL-B-SC-4N-2R-C2 :: job_1481393351385_0018
BL-B-CC-4N-1R-C1 :: job_1481393351385_0010
BL-B-SC-4N-2R-C1 :: job_1481393351385_0006
BL-B-SC-4N-1R-C1 :: job_1481393351385_0009
BL-B-CC-4N-4R-C1 :: job_1481393351385_0002
BL-B-CC-4N-4R-C2 :: job_1481393351385_0014
BL-B-CC-4N-1R-C2 :: job_1481393351385_0022
BM-B-CC-4N-1R-C1 :: job_1481393351385_0012
BM-B-CC-4N-1R-C2 :: job_1481393351385_0024
BL-B-SC-4N-4R-C1 :: job_1481393351385_0001
BL-B-SC-4N-4R-C2 :: job_1481393351385_0013
BM-B-CC-4N-4R-C1 :: job_1481393351385_0004
BM-B-CC-4N-4R-C2 :: job_1481393351385_0016
BM-B-CC-4N-2R-C2 :: job_1481393351385_0020
BM-B-CC-4N-2R-C1 :: job_1481393351385_0008
BM-B-SC-4N-4R-C1 :: job_1481393351385_0003
BM-B-SC-4N-4R-C2 :: job_1481393351385_0015
BM-B-SC-4N-2R-C2 :: job_1481393351385_0019
BM-B-SC-4N-2R-C1 :: job_1481393351385_0007
BM-B-SC-4N-1R-C1 :: job_1481393351385_0011
BM-B-SC-4N-1R-C2 :: job_1481393351385_0023
BL-B-SC-4N-1R-C2 :: job_1481393351385_0026
BM-B-SC-6N-4R-C2 :: job_1480259017504_0027
BM-B-SC-6N-4R-C1 :: job_1480259017504_0011
BL-B-SC-6N-1R-C2 :: job_1480259017504_0039
BL-B-SC-6N-1R-C1 :: job_1480259017504_0017
BL-B-SC-6N-6R-C1 :: job_1480259017504_0005
BL-B-SC-6N-6R-C2 :: job_1480259017504_0038
BL-B-SC-6N-2R-C1 :: job_1480259017504_0013
BL-B-SC-6N-2R-C2 :: job_1480259017504_0029
BM-B-CC-6N-6R-C1 :: job_1480259017504_0008
BM-B-CC-6N-1R-C2 :: job_1480259017504_0036
BM-B-CC-6N-1R-C1 :: job_1480259017504_0020
BL-B-SC-6N-4R-C1 :: job_1480259017504_0009
BL-B-CC-6N-1R-C2 :: job_1480259017504_0041
BL-B-CC-6N-1R-C1 :: job_1480259017504_0018
BL-B-CC-6N-6R-C1 :: job_1480259017504_0006
BL-B-CC-6N-6R-C2 :: job_1480259017504_0022
BM-B-SC-6N-6R-C1 :: job_1480259017504_0007
BM-B-SC-6N-6R-C2 :: job_1480259017504_0023
BM-B-CC-6N-2R-C1 :: job_1480259017504_0016
BM-B-CC-6N-2R-C2 :: job_1480259017504_0032
BL-B-CC-6N-4R-C2 :: job_1480259017504_0026
BL-B-CC-6N-4R-C1 :: job_1480259017504_0010
BM-B-SC-6N-2R-C1 :: job_1480259017504_0015
BM-B-SC-6N-2R-C2 :: job_1480259017504_0031
BL-B-SC-6N-4R-C2 :: job_1480259017504_0025
BM-B-CC-6N-6R-C2 :: job_1480259017504_0024
BM-B-SC-6N-1R-C2 :: job_1480259017504_0035
BM-B-CC-6N-4R-C2 :: job_1480259017504_0028
BM-B-CC-6N-4R-C1 :: job_1480259017504_0012
BM-B-SC-6N-1R-C1 :: job_1480259017504_0019
